…
Now that we have our full query laid out, we can combine all of the sub-queries into the full string and query the data in BigQuery.

# Build the query with all of the subqueries
nc_query <- str_c(filtered_clin, filtered_expr, centroids, test, dist, pred)
# To see the R console output with query processing information, turn queit to FALSE
nc_result <- bq_project_query(billing, nc_query, quiet = TRUE)
# Transform the query result into a tibble
nc <- bq_table_download(nc_result, quiet = TRUE)
nc

## # A tibble: 40 x 3
##    case_barcode prediction clinical_stage
##    <chr>        <chr>      <chr>         
##  1 TCGA-BQ-7055 Stage I    Stage I       
##  2 TCGA-2Z-A9JK Stage IV   Stage III     
##  3 TCGA-EV-5903 Stage IV   Stage I       
##  4 TCGA-2Z-A9JE Stage I    Stage I       
##  5 TCGA-G7-6797 Stage IV   Stage III     
##  6 TCGA-AL-3473 Stage IV   Stage II      
##  7 TCGA-A4-A4ZT Stage II   Stage II      
##  8 TCGA-BQ-5881 Stage I    Stage I       
##  9 TCGA-B1-5398 Stage II   Stage II      
## 10 TCGA-A4-A57E Stage I    Stage IV      
## # ... with 30 more rows
…
